{
    "illnesses" : {
        "flu" : {
            "basicData": ["fever", "cough", "sore throat", "runny/stuffy nose", "muscle/body aches", "headches", "fatigue", "vomiting", "diarrhea"],
            "previousVictims": [
                {
                    "gender": "f",
                    "age": 10,
                    "symptoms": ["fever"],
                    "recurring": false
                }
            ]
        },
        "stroke" : {
            "basicData": ["numbness", "confusion", "trouble seeing", "trouble walking", "severe headache"],
            "previousVictims": [
                {
                    "gender": "m",
                    "age": 50,
                    "symptoms": ["fever"],
                    "recurring": false
                }
            ]
        }
    }
}